LPG
//p1: (log200, log2), p2: (log1000, log1)
p1 = 2.30103,0.30103
p2 = 3 , 0

//inclinacao = (Y2-Y1)/(X2-X1)
-0,30102999566398119521373889472449 / 0,69897000433601880478626110527551?
inclinacao = -0,43067655807339305067010656876396?

//vetor={x, y, inclinacao}
2.3,0.3,-0.43

------------------
CO
//p1: (log200, log1.7), p2: (log1000, log0.8)
p1 = 2.30103, 0.230449
p2 = 3, -0.096910

//inclinacao = (Y2-Y1)/(X2-X1)
 -0.32735893438633034289895321015486 ?/ 0,69897000433601880478626110527551?
inclinacao = -0,46834475350240880808836215495615?

//vetor={x, y, inclinacao}
2.3,0.23,-0.46

------------------
CH4
//p1: (log200, log3), p2: (log10000, log0.7)
p1 = 2.30103, 0.477121
p2 = 4 , -0.154902

//inclinacao = (Y2-Y1)/(X2-X1)
 -0.63202321470540560658281164466248? ?/ 1,6989700043360188047862611052755?
inclinacao = -0,37200375115063264574573993399904?

//vetor={x, y, inclinacao}
2.3,0.47,-0.37
